{
	"info": {
		"_postman_id": "e12b1050-098f-41a9-b941-179f74c32b2b",
		"name": "Partiel micro-services",
		"schema": "https://schema.getpostman.com/json/collection/v2.1.0/collection.json",
		"_exporter_id": "7027135"
	},
	"item": [
		{
			"name": "Cocktails",
			"item": [
				{
					"name": "Get",
					"request": {
						"method": "GET",
						"header": [],
						"url": {
							"raw": "{{HOST}}:{{PORT}}/cocktail?name=Mojito",
							"host": [
								"{{HOST}}"
							],
							"port": "{{PORT}}",
							"path": [
								"cocktail"
							],
							"query": [
								{
									"key": "name",
									"value": "Mojito"
								}
							]
						}
					},
					"response": []
				},
				{
					"name": "Create",
					"request": {
						"method": "POST",
						"header": [],
						"body": {
							"mode": "raw",
							"raw": "{\r\n    \"name\":\"Mojito\",\r\n    \"price\": 8,\r\n    \"alcool\": \"White rhum\",\r\n    \"ingredients\": \"Mint|Sparkling water|Lemon\",\r\n    \"description\": \"8 balles pour de l'eau pétillante et un peu de rhum, c'est un peu abusé quand même\"\r\n}",
							"options": {
								"raw": {
									"language": "json"
								}
							}
						},
						"url": {
							"raw": "{{HOST}}:{{PORT}}/cocktail",
							"host": [
								"{{HOST}}"
							],
							"port": "{{PORT}}",
							"path": [
								"cocktail"
							]
						}
					},
					"response": []
				},
				{
					"name": "Update",
					"request": {
						"method": "PUT",
						"header": [],
						"body": {
							"mode": "raw",
							"raw": "{\r\n    \"id\": \"62e14dcba643f8ea4ae98a71\",\r\n    \"name\":\"Mojito\",\r\n    \"price\": 10,\r\n    \"alcool\": \"White rhum\",\r\n    \"ingredients\": \"Mint|Sparkling water|Lemon\",\r\n    \"description\": \"10 balles pour de l'eau pétillante et un peu de rhum, c'est un peu abusé quand même\"\r\n}",
							"options": {
								"raw": {
									"language": "json"
								}
							}
						},
						"url": {
							"raw": "{{HOST}}:{{PORT}}/cocktail",
							"host": [
								"{{HOST}}"
							],
							"port": "{{PORT}}",
							"path": [
								"cocktail"
							]
						}
					},
					"response": []
				},
				{
					"name": "Delete",
					"request": {
						"method": "DELETE",
						"header": [],
						"body": {
							"mode": "raw",
							"raw": "{\r\n    \"id\": \"62e14dcba643f8ea4ae98a71\"\r\n}",
							"options": {
								"raw": {
									"language": "json"
								}
							}
						},
						"url": {
							"raw": "{{HOST}}:{{PORT}}/cocktail",
							"host": [
								"{{HOST}}"
							],
							"port": "{{PORT}}",
							"path": [
								"cocktail"
							]
						}
					},
					"response": []
				}
			]
		},
		{
			"name": "Bars",
			"item": [
				{
					"name": "Get",
					"request": {
						"method": "GET",
						"header": [],
						"url": {
							"raw": "{{HOST}}:{{PORT}}/bar",
							"host": [
								"{{HOST}}"
							],
							"port": "{{PORT}}",
							"path": [
								"bar"
							]
						}
					},
					"response": []
				},
				{
					"name": "Create",
					"request": {
						"method": "POST",
						"header": [],
						"body": {
							"mode": "raw",
							"raw": "{\r\n    \"location\":\"(48.8491666,2.3897343)\",\r\n    \"address\": \"242 Rue du Faubourg Saint Antoine, 75012 Paris\",\r\n    \"cocktails\": [\"62e14df4a643f8ea4ae98a7c\"]\r\n}",
							"options": {
								"raw": {
									"language": "json"
								}
							}
						},
						"url": {
							"raw": "{{HOST}}:{{PORT}}/bar",
							"host": [
								"{{HOST}}"
							],
							"port": "{{PORT}}",
							"path": [
								"bar"
							]
						}
					},
					"response": []
				},
				{
					"name": "Update",
					"request": {
						"method": "PUT",
						"header": [],
						"body": {
							"mode": "raw",
							"raw": "\r\n{\r\n    \"id\": \"62e14ca64171ab5a6a0a4724\",\r\n    \"cocktails\": [\"62e14cd14171ab5a6a0a4726\"]\r\n}",
							"options": {
								"raw": {
									"language": "json"
								}
							}
						},
						"url": {
							"raw": "{{HOST}}:{{PORT}}/bar",
							"host": [
								"{{HOST}}"
							],
							"port": "{{PORT}}",
							"path": [
								"bar"
							]
						}
					},
					"response": []
				},
				{
					"name": "Delete",
					"request": {
						"method": "DELETE",
						"header": [],
						"body": {
							"mode": "raw",
							"raw": "{\r\n    \"id\": \"62e148fe6be9de3a87999bf1\"\r\n}",
							"options": {
								"raw": {
									"language": "json"
								}
							}
						},
						"url": {
							"raw": "{{HOST}}:{{PORT}}/bar",
							"host": [
								"{{HOST}}"
							],
							"port": "{{PORT}}",
							"path": [
								"bar"
							]
						}
					},
					"response": []
				},
				{
					"name": "Search cocktail",
					"request": {
						"method": "GET",
						"header": [],
						"url": {
							"raw": "{{HOST}}:{{PORT}}/bar/search-cocktail?id=62e14df9a643f8ea4ae98a7e&research=Mojito",
							"host": [
								"{{HOST}}"
							],
							"port": "{{PORT}}",
							"path": [
								"bar",
								"search-cocktail"
							],
							"query": [
								{
									"key": "id",
									"value": "62e14df9a643f8ea4ae98a7e"
								},
								{
									"key": "research",
									"value": "Mojito"
								}
							]
						}
					},
					"response": []
				}
			]
		}
	],
	"auth": {
		"type": "bearer",
		"bearer": [
			{
				"key": "token",
				"value": "{{TOKEN}}",
				"type": "string"
			}
		]
	},
	"event": [
		{
			"listen": "prerequest",
			"script": {
				"type": "text/javascript",
				"exec": [
					""
				]
			}
		},
		{
			"listen": "test",
			"script": {
				"type": "text/javascript",
				"exec": [
					""
				]
			}
		}
	]
}